﻿{
  "data": [
    {
      "id": "848363065177874",
      "name": "Mai Le",
      "created_time": "2016-03-23T14:44:27+0000",
      "x": 66.111111111111,
      "y": 82.55
    },
    {
      "id": "814300518628010",
      "name": "Tên Cướp Dễ Thương",
      "created_time": "2016-03-21T15:22:35+0000",
      "x": 60.339210510254,
      "y": 54.961151123047
    }
  ],
  "paging": {
    "cursors": {
      "before": "ODQ4MzYzMDY1MTc3ODc0",
      "after": "ODE0MzAwNTE4NjI4MDEw"
    }
  }
}